%YAML 1.1
%TAG !u! tag:unity3d.com,2011:
--- !u!1001 &4681867624812073066
PrefabInstance:
  m_ObjectHideFlags: 0
  serializedVersion: 2
  m_Modification:
    m_TransformParent: {fileID: 4681867625738547936}
    m_Modifications:
    - target: {fileID: 5735748480419956425, guid: 2a89f0f43a279cc4482d3809b998dcce,
        type: 3}
      propertyPath: m_Name
      value: VolumetricLights_prefab
      objectReference: {fileID: 0}
    - target: {fileID: 5735748480419956430, guid: 2a89f0f43a279cc4482d3809b998dcce,
        type: 3}
      propertyPath: m_LocalPosition.x
      value: 0.0001
      objectReference: {fileID: 0}
    - target: {fileID: 5735748480419956430, guid: 2a89f0f43a279cc4482d3809b998dcce,
        type: 3}
      propertyPath: m_LocalPosition.y
      value: 0
      objectReference: {fileID: 0}
    - target: {fileID: 5735748480419956430, guid: 2a89f0f43a279cc4482d3809b998dcce,
        type: 3}
      propertyPath: m_LocalPosition.z
      value: 0.0024
      objectReference: {fileID: 0}
    - target: {fileID: 5735748480419956430, guid: 2a89f0f43a279cc4482d3809b998dcce,
        type: 3}
      propertyPath: m_LocalRotation.x
      value: 0
      objectReference: {fileID: 0}
    - target: {fileID: 5735748480419956430, guid: 2a89f0f43a279cc4482d3809b998dcce,
        type: 3}
      propertyPath: m_LocalRotation.y
      value: 0
      objectReference: {fileID: 0}
    - target: {fileID: 5735748480419956430, guid: 2a89f0f43a279cc4482d3809b998dcce,
        type: 3}
      propertyPath: m_LocalRotation.z
      value: 0
      objectReference: {fileID: 0}
    - target: {fileID: 5735748480419956430, guid: 2a89f0f43a279cc4482d3809b998dcce,
        type: 3}
      propertyPath: m_LocalRotation.w
      value: 1
      objectReference: {fileID: 0}
    - target: {fileID: 5735748480419956430, guid: 2a89f0f43a279cc4482d3809b998dcce,
        type: 3}
      propertyPath: m_RootOrder
      value: 0
      objectReference: {fileID: 0}
    - target: {fileID: 5735748480419956430, guid: 2a89f0f43a279cc4482d3809b998dcce,
        type: 3}
      propertyPath: m_LocalEulerAnglesHint.x
      value: 0
      objectReference: {fileID: 0}
    - target: {fileID: 5735748480419956430, guid: 2a89f0f43a279cc4482d3809b998dcce,
        type: 3}
      propertyPath: m_LocalEulerAnglesHint.y
      value: 0
      objectReference: {fileID: 0}
    - target: {fileID: 5735748480419956430, guid: 2a89f0f43a279cc4482d3809b998dcce,
        type: 3}
      propertyPath: m_LocalEulerAnglesHint.z
      value: 0
      objectReference: {fileID: 0}
    - target: {fileID: 5735748480419956428, guid: 2a89f0f43a279cc4482d3809b998dcce,
        type: 3}
      propertyPath: areaMaterial
      value: 
      objectReference: {fileID: 0}
    - target: {fileID: 5735748480419956428, guid: 2a89f0f43a279cc4482d3809b998dcce,
        type: 3}
      propertyPath: orthoMaterial
      value: 
      objectReference: {fileID: 0}
    - target: {fileID: 5735748480419956428, guid: 2a89f0f43a279cc4482d3809b998dcce,
        type: 3}
      propertyPath: meshContainer
      value: 
      objectReference: {fileID: 0}
    - target: {fileID: 5735748480419956418, guid: 2a89f0f43a279cc4482d3809b998dcce,
        type: 3}
      propertyPath: m_Materials.Array.data[0]
      value: 
      objectReference: {fileID: 0}
    - target: {fileID: 5735748480419956419, guid: 2a89f0f43a279cc4482d3809b998dcce,
        type: 3}
      propertyPath: m_Mesh
      value: 
      objectReference: {fileID: 0}
    m_RemovedComponents: []
  m_SourcePrefab: {fileID: 100100000, guid: 2a89f0f43a279cc4482d3809b998dcce, type: 3}
--- !u!1001 &4681867625738414178
PrefabInstance:
  m_ObjectHideFlags: 0
  serializedVersion: 2
  m_Modification:
    m_TransformParent: {fileID: 0}
    m_Modifications:
    - target: {fileID: 100000, guid: 2544f12792c39ca468dfac9b796c9dbc, type: 3}
      propertyPath: m_Name
      value: Player_Sport_Light_prefab Variant
      objectReference: {fileID: 0}
    - target: {fileID: 100000, guid: 2544f12792c39ca468dfac9b796c9dbc, type: 3}
      propertyPath: m_IsActive
      value: 1
      objectReference: {fileID: 0}
    - target: {fileID: 100002, guid: 2544f12792c39ca468dfac9b796c9dbc, type: 3}
      propertyPath: m_IsActive
      value: 1
      objectReference: {fileID: 0}
    - target: {fileID: 400000, guid: 2544f12792c39ca468dfac9b796c9dbc, type: 3}
      propertyPath: m_LocalPosition.x
      value: 0.0013038921
      objectReference: {fileID: 0}
    - target: {fileID: 400000, guid: 2544f12792c39ca468dfac9b796c9dbc, type: 3}
      propertyPath: m_LocalPosition.y
      value: 1.7942263
      objectReference: {fileID: 0}
    - target: {fileID: 400000, guid: 2544f12792c39ca468dfac9b796c9dbc, type: 3}
      propertyPath: m_LocalPosition.z
      value: 0.011153121
      objectReference: {fileID: 0}
    - target: {fileID: 400000, guid: 2544f12792c39ca468dfac9b796c9dbc, type: 3}
      propertyPath: m_LocalRotation.x
      value: 0
      objectReference: {fileID: 0}
    - target: {fileID: 400000, guid: 2544f12792c39ca468dfac9b796c9dbc, type: 3}
      propertyPath: m_LocalRotation.y
      value: -0
      objectReference: {fileID: 0}
    - target: {fileID: 400000, guid: 2544f12792c39ca468dfac9b796c9dbc, type: 3}
      propertyPath: m_LocalRotation.z
      value: -0
      objectReference: {fileID: 0}
    - target: {fileID: 400000, guid: 2544f12792c39ca468dfac9b796c9dbc, type: 3}
      propertyPath: m_LocalRotation.w
      value: 1
      objectReference: {fileID: 0}
    - target: {fileID: 400000, guid: 2544f12792c39ca468dfac9b796c9dbc, type: 3}
      propertyPath: m_RootOrder
      value: 0
      objectReference: {fileID: 0}
    - target: {fileID: 400000, guid: 2544f12792c39ca468dfac9b796c9dbc, type: 3}
      propertyPath: m_LocalEulerAnglesHint.x
      value: 0
      objectReference: {fileID: 0}
    - target: {fileID: 400000, guid: 2544f12792c39ca468dfac9b796c9dbc, type: 3}
      propertyPath: m_LocalEulerAnglesHint.y
      value: 0
      objectReference: {fileID: 0}
    - target: {fileID: 400000, guid: 2544f12792c39ca468dfac9b796c9dbc, type: 3}
      propertyPath: m_LocalEulerAnglesHint.z
      value: 0
      objectReference: {fileID: 0}
    - target: {fileID: 2300002, guid: 2544f12792c39ca468dfac9b796c9dbc, type: 3}
      propertyPath: m_Materials.Array.data[0]
      value: 
      objectReference: {fileID: 2100000, guid: bfd69817b6a149843b0ac04d7083c780, type: 2}
    m_RemovedComponents: []
  m_SourcePrefab: {fileID: 100100000, guid: 2544f12792c39ca468dfac9b796c9dbc, type: 3}
--- !u!4 &4681867625738547936 stripped
Transform:
  m_CorrespondingSourceObject: {fileID: 400002, guid: 2544f12792c39ca468dfac9b796c9dbc,
    type: 3}
  m_PrefabInstance: {fileID: 4681867625738414178}
  m_PrefabAsset: {fileID: 0}
